Peatükk 7 Graafikute loomine R-is | Lihtne tekstitöötlus R-is ja tidyverse’is
…
data %>%
ggplot(aes(x=var1, y=var2)) +
  geom_point()

Võime selle struktuuri lahti seletada esimese näite põhjal. Alustuseks on meil siis andmestik. Teeme kohe vajalikud tööd sellega ära ja salvestame muutujasse ‘andmed’. Siis saame edasi otse sellele viidata.

andmed <- gapminder %>%
  group_by(country) %>%
  filter(year==max(year))

Vaatame korraks ka sellesse tabelisse sisse. Seal on iga riigi kohta üks rida. Real on märgitud riigi nimi, maailmajagu, oodatav eluiga, rahvaarv ja rikkuse näiduna rahvuslik kogutoodang ehk gdp inimese kohta.

andmed

## # A tibble: 142 x 6
## # Groups:   country [142]
##    country     continent  year lifeExp       pop gdpPercap
##    <fct>       <fct>     <int>   <dbl>     <int>     <dbl>
##  1 Afghanistan Asia       2007    43.8  31889923      975.
##  2 Albania     Europe     2007    76.4   3600523     5937.
##  3 Algeria     Africa     2007    72.3  33333216     6223.
##  4 Angola      Africa     2007    42.7  12420476     4797.
##  5 Argentina   Americas   2007    75.3  40301927    12779.
##  6 Australia   Oceania    2007    81.2  20434176    34435.
##  7 Austria     Europe     2007    79.8   8199783    36126.
##  8 Bahrain     Asia       2007    75.6    708573    29796.
##  9 Bangladesh  Asia       2007    64.1 150448339     1391.
## 10 Belgium     Europe     2007    79.4  10392226    33693.
## # … with 132 more rows
…
Seejuures võime me neid loendada ka aastate kaupa.

edetabel %>% 
  count(language,year)

## # A tibble: 76 x 3
##    language  year     n
##    <chr>    <dbl> <int>
##  1 en        1994     2
##  2 en        1995     2
##  3 en        1997     4
##  4 en        1998     3
##  5 en        1999    10
##  6 en        2000    10
##  7 en        2001     3
##  8 en        2002     8
##  9 en        2003     8
## 10 en        2004     9
## # … with 66 more rows
…
