R-i lühikoolitus, osa 1
…
Vaatame alustuseks lihtsaid käske, mis on mõeldud andmestikust esimese ülevaate saamiseks ja sellest endale vajaliku osa eraldamiseks. Selleks on olemas järgmised vahendid.

%>% - vii andmed järgmisesse protsessi

select() - vali soovitud tunnused

filter() - vii andmestik läbi filtri/sõela

unique() - jäta alles ainult unikaalsed read

Trükkides sisse andmestiku nime, näeme selle sisu. Gapminder andmestik sisaldab tunnuseid riik, manner, mõõtmise aasta, oodatav eluiga, rahvaarv ja GDP rahvaarvu kohta. Samas on iga riigi kohta 12 mõõtmisaastat perioodi sees, mis on asetatud igaüks ise reale.

gapminder

## # A tibble: 1,704 x 6
##    country     continent  year lifeExp      pop gdpPercap
##    <chr>       <chr>     <dbl>   <dbl>    <dbl>     <dbl>
##  1 Afghanistan Asia       1952    28.8  8425333      779.
##  2 Afghanistan Asia       1957    30.3  9240934      821.
##  3 Afghanistan Asia       1962    32.0 10267083      853.
##  4 Afghanistan Asia       1967    34.0 11537966      836.
##  5 Afghanistan Asia       1972    36.1 13079460      740.
##  6 Afghanistan Asia       1977    38.4 14880372      786.
##  7 Afghanistan Asia       1982    39.9 12881816      978.
##  8 Afghanistan Asia       1987    40.8 13867957      852.
##  9 Afghanistan Asia       1992    41.7 16317921      649.
## 10 Afghanistan Asia       1997    41.8 22227415      635.
## # … with 1,694 more rows

5.3 Tunnuste valimine

Kui me nüüd tahaksime võtta sellest ainult valitud tulbad, siis kasutame käsku select(). Kirjutame selleks soovitud tunnuste nimed sulgude vahele

gapminder %>% 
  select(country,continent,year,lifeExp)

## # A tibble: 1,704 x 4
##    country     continent  year lifeExp
##    <chr>       <chr>     <dbl>   <dbl>
##  1 Afghanistan Asia       1952    28.8
##  2 Afghanistan Asia       1957    30.3
##  3 Afghanistan Asia       1962    32.0
##  4 Afghanistan Asia       1967    34.0
##  5 Afghanistan Asia       1972    36.1
##  6 Afghanistan Asia       1977    38.4
##  7 Afghanistan Asia       1982    39.9
##  8 Afghanistan Asia       1987    40.8
##  9 Afghanistan Asia       1992    41.7
## 10 Afghanistan Asia       1997    41.8
## # … with 1,694 more rows

Me saame sama teha ka numbritega. Mäletate, et koolon tähendas numbrite vahemikku, ehk 1:4 tähendab tulpi 1-4.

gapminder %>% 
  select(1:4)

## # A tibble: 1,704 x 4
##    country     continent  year lifeExp
##    <chr>       <chr>     <dbl>   <dbl>
##  1 Afghanistan Asia       1952    28.8
##  2 Afghanistan Asia       1957    30.3
##  3 Afghanistan Asia       1962    32.0
##  4 Afghanistan Asia       1967    34.0
##  5 Afghanistan Asia       1972    36.1
##  6 Afghanistan Asia       1977    38.4
##  7 Afghanistan Asia       1982    39.9
##  8 Afghanistan Asia       1987    40.8
##  9 Afghanistan Asia       1992    41.7
## 10 Afghanistan Asia       1997    41.8
## # … with 1,694 more rows

Me võime ka võtta ainult riigi ja mandri. Sellisel juhul on näha, et tabel ei muutunud sellest veel lühemaks. Riiginimed esinevad mitu korda ka siis kui mõõtmisaasta on eemaldatud.

gapminder %>% 
  select(1:2)

## # A tibble: 1,704 x 2
##    country     continent
##    <chr>       <chr>    
##  1 Afghanistan Asia     
##  2 Afghanistan Asia     
##  3 Afghanistan Asia     
##  4 Afghanistan Asia     
##  5 Afghanistan Asia     
##  6 Afghanistan Asia     
##  7 Afghanistan Asia     
##  8 Afghanistan Asia     
##  9 Afghanistan Asia     
## 10 Afghanistan Asia     
## # … with 1,694 more rows

Et jääks alles ainult unikaalsed read, kasutame käsku unique().

gapminder %>% 
  select(1:2) %>% 
  unique()

## # A tibble: 142 x 2
##    country     continent
##    <chr>       <chr>    
##  1 Afghanistan Asia     
##  2 Albania     Europe   
##  3 Algeria     Africa   
##  4 Angola      Africa   
##  5 Argentina   Americas 
##  6 Australia   Oceania  
##  7 Austria     Europe   
##  8 Bahrain     Asia     
##  9 Bangladesh  Asia     
## 10 Belgium     Europe   
## # … with 132 more rows
…
## # A tibble: 5 x 1
##   continent
##   <chr>    
## 1 Asia     
## 2 Europe   
## 3 Africa   
## 4 Americas 
## 5 Oceania

Kuna gapminder on üpris kompaktne andmestik ja tulpade eraldamine oluliselt ülevaadet ei paranda. select() funktsiooni kasu tuleb esile alles suuremate andmestikega. Näiteks kui me vaatame eu_lifeExp andmestikku, näeme, et seal on hulk rohkem tunnuseid iga rea kohta.

eu_lifeExp

## # A tibble: 14,448 x 63
##    unit  sex   age   geo   `2018` `2017` `2016` `2015` `2014` `2013` `2012`
##    <chr> <chr> <chr> <chr> <chr>  <chr>  <chr>  <chr>  <chr>  <chr>  <chr> 
##  1 YR    F     Y1    AL    :      79.7   79.8   79.2   79.8   79.6   :     
##  2 YR    F     Y1    AM    :      78.5   78.0   77.9   :      :      :     
##  3 YR    F     Y1    AT    :      83.2   83.4   83.0   83.3   83.0   82.8  
##  4 YR    F     Y1    AZ    :      77.7   :      77.5   77.0   76.9   76.5  
##  5 YR    F     Y1    BE    :      83.2   83.2   82.6   83.1   82.5   82.4  
##  6 YR    F     Y1    BG    :      77.9   78.0   77.6   77.6   78.1   77.4  
##  7 YR    F     Y1    BY    :      78.6   78.4   78.2   77.8   77.3   77.1  
##  8 YR    F     Y1    CH    :      84.9   84.9   84.4   84.7   84.3   84.2  
##  9 YR    F     Y1    CY    :      83.3   84.1   82.9   83.4   84.0   82.6  
## 10 YR    F     Y1    CZ    :      81.2   81.3   80.8   81.1   80.5   80.4  
## # … with 14,438 more rows, and 52 more variables: `2011` <chr>, `2010` <chr>,
## #   `2009` <chr>, `2008` <chr>, `2007` <chr>, `2006` <chr>, `2005` <chr>,
## #   `2004` <chr>, `2003` <chr>, `2002` <chr>, `2001` <chr>, `2000` <chr>,
## #   `1999` <chr>, `1998` <chr>, `1997` <chr>, `1996` <chr>, `1995` <chr>,
## #   `1994` <chr>, `1993` <chr>, `1992` <chr>, `1991` <chr>, `1990` <chr>,
## #   `1989` <chr>, `1988` <chr>, `1987` <chr>, `1986` <chr>, `1985` <chr>,
## #   `1984` <chr>, `1983` <chr>, `1982` <chr>, `1981` <chr>, `1980` <chr>,
## #   `1979` <chr>, `1978` <chr>, `1977` <chr>, `1976` <chr>, `1975` <chr>,
## #   `1974` <chr>, `1973` <chr>, `1972` <chr>, `1971` <chr>, `1970` <chr>,
## #   `1969` <chr>, `1968` <chr>, `1967` <chr>, `1966` <chr>, `1965` <chr>,
## #   `1964` <chr>, `1963` <chr>, `1962` <chr>, `1961` <chr>, `1960` <chr>

Me võime vaadata, et tahame näiteks ainult 2017 aasta andmeid. Siin tuleb 2017 jutumärkidesse panna nagu on selle kuju ka ülevaates, kuna ta ei ole antud juhul numbri, vaid teksti rollis. Tunnuste nimed, mis ei meenuta numbreid võivad olla nii jutumärkides kui ilma.

eu_lifeExp %>% 
  select(unit,sex,age,"geo","2017")

## # A tibble: 14,448 x 5
##    unit  sex   age   geo   `2017`
##    <chr> <chr> <chr> <chr> <chr> 
##  1 YR    F     Y1    AL    79.7  
##  2 YR    F     Y1    AM    78.5  
##  3 YR    F     Y1    AT    83.2  
##  4 YR    F     Y1    AZ    77.7  
##  5 YR    F     Y1    BE    83.2  
##  6 YR    F     Y1    BG    77.9  
##  7 YR    F     Y1    BY    78.6  
##  8 YR    F     Y1    CH    84.9  
##  9 YR    F     Y1    CY    83.3  
## 10 YR    F     Y1    CZ    81.2  
## # … with 14,438 more rows

Võib juhtuda, et me ei taha ainult ühte aastat, vaid mõnd vahemikku. Selleks on võimalik kirjutada kõik nimed järjest select() alla. Või selle hõlbustamiseks sisaldab ka select() hulka lisafunktsioone, millega tunnuste valimist lihtsustada. Näiteks starts_with(), ends_with() võimaldavad valida tunnuseid, mille nimed algavad või lõppevad kindla mustriga.

eu_lifeExp %>% 
  select(unit,sex,age,"geo","2018","2017")

## # A tibble: 14,448 x 6
##    unit  sex   age   geo   `2018` `2017`
##    <chr> <chr> <chr> <chr> <chr>  <chr> 
##  1 YR    F     Y1    AL    :      79.7  
##  2 YR    F     Y1    AM    :      78.5  
##  3 YR    F     Y1    AT    :      83.2  
##  4 YR    F     Y1    AZ    :      77.7  
##  5 YR    F     Y1    BE    :      83.2  
##  6 YR    F     Y1    BG    :      77.9  
##  7 YR    F     Y1    BY    :      78.6  
##  8 YR    F     Y1    CH    :      84.9  
##  9 YR    F     Y1    CY    :      83.3  
## 10 YR    F     Y1    CZ    :      81.2  
## # … with 14,438 more rows

eu_lifeExp %>% 
  select(unit,sex,age,geo,starts_with("200"))

## # A tibble: 14,448 x 14
##    unit  sex   age   geo   `2009` `2008` `2007` `2006` `2005` `2004` `2003`
##    <chr> <chr> <chr> <chr> <chr>  <chr>  <chr>  <chr>  <chr>  <chr>  <chr> 
##  1 YR    F     Y1    AL    :      :      :      :      :      :      :     
##  2 YR    F     Y1    AM    76.5   76.4   76.5   75.9   :      :      :     
##  3 YR    F     Y1    AT    82.5   82.5   82.3   82.0   81.6   81.4   80.8  
##  4 YR    F     Y1    AZ    76.1   76.1   75.4   75.1   :      :      :     
##  5 YR    F     Y1    BE    82.1   81.8   81.9   81.6   81.1   81.2   80.4  
##  6 YR    F     Y1    BG    77.1   76.7   76.3   76.1   76.0   76.0   75.7  
##  7 YR    F     Y1    BY    :      :      :      :      :      :      :     
##  8 YR    F     Y1    CH    83.9   83.9   83.7   83.6   83.3   83.1   82.5  
##  9 YR    F     Y1    CY    82.6   82.0   81.4   81.3   80.2   81.0   80.5  
## 10 YR    F     Y1    CZ    79.7   79.7   79.4   79.1   78.5   78.4   77.8  
## # … with 14,438 more rows, and 3 more variables: `2002` <chr>, `2001` <chr>,
## #   `2000` <chr>

eu_lifeExp %>% 
  select(unit,sex,age,geo,ends_with("5"))

## # A tibble: 14,448 x 10
##    unit  sex   age   geo   `2015` `2005` `1995` `1985` `1975` `1965`
##    <chr> <chr> <chr> <chr> <chr>  <chr>  <chr>  <chr>  <chr>  <chr> 
##  1 YR    F     Y1    AL    79.2   :      :      :      :      :     
##  2 YR    F     Y1    AM    77.9   :      :      :      :      :     
##  3 YR    F     Y1    AT    83.0   81.6   79.5   77.1   75.1   :     
##  4 YR    F     Y1    AZ    77.5   :      :      :      :      :     
##  5 YR    F     Y1    BE    82.6   81.1   79.8   77.7   75.3   74.3  
##  6 YR    F     Y1    BG    77.6   76.0   74.8   74.3   73.9   74.3  
##  7 YR    F     Y1    BY    78.2   :      :      :      :      :     
##  8 YR    F     Y1    CH    84.4   83.3   81.3   79.9   77.8   75.3  
##  9 YR    F     Y1    CY    82.9   80.2   79.3   :      :      :     
## 10 YR    F     Y1    CZ    80.8   78.5   76.2   74.6   74.3   74.0  
## # … with 14,438 more rows

Viimaks on meil võimalik ka kasutada keerulisemaid mustreid. matches() võimaldab kasutada ka regulaaravaldisi tunnusenimede leidmiseks. Näiteks võime leida tunnused iga viie aasta tagant. “0\(|5\)” tähendab, et tekst peab lõppema 0-i või 5-ga.

eu_lifeExp %>% 
  select(unit,sex,age,geo,matches("0$|5$"))

## # A tibble: 14,448 x 16
##    unit  sex   age   geo   `2015` `2010` `2005` `2000` `1995` `1990` `1985`
##    <chr> <chr> <chr> <chr> <chr>  <chr>  <chr>  <chr>  <chr>  <chr>  <chr> 
##  1 YR    F     Y1    AL    79.2   :      :      :      :      :      :     
##  2 YR    F     Y1    AM    77.9   :      :      :      :      :      :     
##  3 YR    F     Y1    AT    83.0   82.8   81.6   80.6   79.5   78.6   77.1  
##  4 YR    F     Y1    AZ    77.5   75.8   :      :      :      :      :     
##  5 YR    F     Y1    BE    82.6   82.2   81.1   80.4   79.8   79.1   77.7  
##  6 YR    F     Y1    BG    77.6   77.0   76.0   74.9   74.8   74.6   74.3  
##  7 YR    F     Y1    BY    78.2   :      :      :      :      :      :     
##  8 YR    F     Y1    CH    84.4   84.2   83.3   82.1   81.3   80.4   79.9  
##  9 YR    F     Y1    CY    82.9   83.1   80.2   79.5   79.3   :      :     
## 10 YR    F     Y1    CZ    80.8   80.1   78.5   77.7   76.2   75.2   74.6  
## # … with 14,438 more rows, and 5 more variables: `1980` <chr>, `1975` <chr>,
## #   `1970` <chr>, `1965` <chr>, `1960` <chr>

See funktsioon tunnuste valimiseks võib osutuda eriti kasulikuks kui on tabelis väga palju tunnuseid, mille tunnuste nimed on omavahel sarnased teatud reeglite alusel. Näiteks meie sisseloetud küsitluses võime tahta korraga näha kõiki küsimusi, mis on seotud usaldusega. Need sisaldavad tunnusenimes trst ja me võime seda otsida. Näiteks siis kasutades starts_with() funktsiooni või matches() funktsiooni. matches() leiab ühe tunnuse enam, kuna ppltrst tunnuses pole otsitu enam tunnuse nime alguses.

ess9_ee %>% 
  select(idno,cntry,starts_with("trst"))

## # A tibble: 1,904 x 9
##     idno cntry      trstprl  trstlgl   trstplc trstplt  trstprt    trstep trstun
##    <dbl> <chr+lbl> <dbl+lb> <dbl+lb> <dbl+lbl> <dbl+l> <dbl+lb> <dbl+lbl> <dbl+>
##  1     6 EE [Esto…    5 [5]    5 [5]  7 [7]      4 [4] 5 [5]     5 [5]     5 [5]
##  2    22 EE [Esto…    6 [6]    6 [6]  8 [8]      6 [6] 5 [5]     8 [8]     9 [9]
##  3    33 EE [Esto…    8 [8]    8 [8]  8 [8]      3 [3] 3 [3]     6 [6]     7 [7]
##  4    48 EE [Esto…    3 [3]    4 [4]  5 [5]      5 [5] 5 [5]     5 [5]     5 [5]
##  5    51 EE [Esto…    5 [5]    5 [5]  8 [8]      7 [7] 7 [7]    NA        NA    
##  6   101 EE [Esto…    7 [7]    3 [3] 10 [Comp…   1 [1] 0 [No t… 10 [Comp…  3 [3]
##  7   102 EE [Esto…    4 [4]    7 [7]  8 [8]      3 [3] 3 [3]     5 [5]     8 [8]
##  8   113 EE [Esto…    7 [7]    8 [8]  7 [7]      6 [6] 6 [6]     7 [7]     7 [7]
##  9   114 EE [Esto…    6 [6]    9 [9]  9 [9]      2 [2] 2 [2]     8 [8]     9 [9]
## 10   121 EE [Esto…    7 [7]    7 [7] 10 [Comp…   7 [7] 7 [7]    NA        NA    
## # … with 1,894 more rows

ess9_ee %>% 
  select(idno,cntry,matches("trst"))

## # A tibble: 1,904 x 10
##     idno cntry    ppltrst trstprl trstlgl  trstplc trstplt trstprt   trstep
##    <dbl> <chr+lb> <dbl+l> <dbl+l> <dbl+l> <dbl+lb> <dbl+l> <dbl+l> <dbl+lb>
##  1     6 EE [Est…   3 [3]   5 [5]   5 [5]  7 [7]     4 [4] 5 [5]    5 [5]  
##  2    22 EE [Est…   7 [7]   6 [6]   6 [6]  8 [8]     6 [6] 5 [5]    8 [8]  
##  3    33 EE [Est…   6 [6]   8 [8]   8 [8]  8 [8]     3 [3] 3 [3]    6 [6]  
##  4    48 EE [Est…   2 [2]   3 [3]   4 [4]  5 [5]     5 [5] 5 [5]    5 [5]  
##  5    51 EE [Est…   5 [5]   5 [5]   5 [5]  8 [8]     7 [7] 7 [7]   NA      
##  6   101 EE [Est…   5 [5]   7 [7]   3 [3] 10 [Com…   1 [1] 0 [No … 10 [Com…
##  7   102 EE [Est…   8 [8]   4 [4]   7 [7]  8 [8]     3 [3] 3 [3]    5 [5]  
##  8   113 EE [Est…   7 [7]   7 [7]   8 [8]  7 [7]     6 [6] 6 [6]    7 [7]  
##  9   114 EE [Est…   8 [8]   6 [6]   9 [9]  9 [9]     2 [2] 2 [2]    8 [8]  
## 10   121 EE [Est…   7 [7]   7 [7]   7 [7] 10 [Com…   7 [7] 7 [7]   NA      
## # … with 1,894 more rows, and 1 more variable: trstun <dbl+lbl>
…
gapminder %>% 
  filter(year==1952)

## # A tibble: 142 x 6
##    country     continent  year lifeExp      pop gdpPercap
##    <chr>       <chr>     <dbl>   <dbl>    <dbl>     <dbl>
##  1 Afghanistan Asia       1952    28.8  8425333      779.
##  2 Albania     Europe     1952    55.2  1282697     1601.
##  3 Algeria     Africa     1952    43.1  9279525     2449.
##  4 Angola      Africa     1952    30.0  4232095     3521.
##  5 Argentina   Americas   1952    62.5 17876956     5911.
##  6 Australia   Oceania    1952    69.1  8691212    10040.
##  7 Austria     Europe     1952    66.8  6927772     6137.
##  8 Bahrain     Asia       1952    50.9   120447     9867.
##  9 Bangladesh  Asia       1952    37.5 46886859      684.
## 10 Belgium     Europe     1952    68    8730405     8343.
## # … with 132 more rows
…
gapminder %>% 
  filter(country=="Finland",year==1952)

## # A tibble: 1 x 6
##   country continent  year lifeExp     pop gdpPercap
##   <chr>   <chr>     <dbl>   <dbl>   <dbl>     <dbl>
## 1 Finland Europe     1952    66.6 4090500     6425.

Me võime kasutada ka teisi võrdsuse kontrollimise viise. Näiteks võtame riigid, 1) mille rahvaarv oli aastal 1952 vähem kui 1 000 000 või 2) mille oodatav eluiga oli suurem kui 70 aastat või 3) kõik mõõtmistulemused mitte aastast 1952 (hüüumärk ! tähistab eitust), mille GDP elaniku kohta oli 500 ja 1000 usd vahel.

gapminder %>% 
  filter(year==1952,pop<1000000)

## # A tibble: 25 x 6
##    country           continent  year lifeExp    pop gdpPercap
##    <chr>             <chr>     <dbl>   <dbl>  <dbl>     <dbl>
##  1 Bahrain           Asia       1952    50.9 120447     9867.
##  2 Botswana          Africa     1952    47.6 442308      851.
##  3 Comoros           Africa     1952    40.7 153936     1103.
##  4 Congo, Rep.       Africa     1952    42.1 854885     2126.
##  5 Costa Rica        Americas   1952    57.2 926317     2627.
##  6 Djibouti          Africa     1952    34.8  63149     2670.
##  7 Equatorial Guinea Africa     1952    34.5 216964      376.
##  8 Gabon             Africa     1952    37.0 420702     4293.
##  9 Gambia            Africa     1952    30   284320      485.
## 10 Guinea-Bissau     Africa     1952    32.5 580653      300.
## # … with 15 more rows
…
## # A tibble: 5 x 6
##   country     continent  year lifeExp      pop gdpPercap
##   <chr>       <chr>     <dbl>   <dbl>    <dbl>     <dbl>
## 1 Denmark     Europe     1952    70.8  4334000     9692.
## 2 Iceland     Europe     1952    72.5   147962     7268.
## 3 Netherlands Europe     1952    72.1 10381988     8942.
## 4 Norway      Europe     1952    72.7  3327728    10095.
## 5 Sweden      Europe     1952    71.9  7124673     8528.

gapminder %>% 
  filter(!year==1952,gdpPercap>500,gdpPercap<1000)

## # A tibble: 263 x 6
##    country     continent  year lifeExp      pop gdpPercap
##    <chr>       <chr>     <dbl>   <dbl>    <dbl>     <dbl>
##  1 Afghanistan Asia       1957    30.3  9240934      821.
##  2 Afghanistan Asia       1962    32.0 10267083      853.
##  3 Afghanistan Asia       1967    34.0 11537966      836.
##  4 Afghanistan Asia       1972    36.1 13079460      740.
##  5 Afghanistan Asia       1977    38.4 14880372      786.
##  6 Afghanistan Asia       1982    39.9 12881816      978.
##  7 Afghanistan Asia       1987    40.8 13867957      852.
##  8 Afghanistan Asia       1992    41.7 16317921      649.
##  9 Afghanistan Asia       1997    41.8 22227415      635.
## 10 Afghanistan Asia       2002    42.1 25268405      727.
## # … with 253 more rows

Täpselt samamoodi võime soovida võtta ainult osa ridu eu_lifeExp andmestikust. Võtame alustuseks ainult eesti kohta käivad andmed. Näeme, et seal on oodatav edasine eluiga määratud vanuste järgi. Valime sealt Y1, mis arvutab oodatava eluea sünnihetkel. Seejärel näeme, et seal on eraldi ridadel sugu F, M ja T. Valime sealt T ehk kõik. Kuna T on tekst on vaja jutumärke selle ümber.

eu_lifeExp %>% 
  filter(geo=="EE")

## # A tibble: 258 x 63
##    unit  sex   age   geo   `2018` `2017` `2016` `2015` `2014` `2013` `2012`
##    <chr> <chr> <chr> <chr> <chr>  <chr>  <chr>  <chr>  <chr>  <chr>  <chr> 
##  1 YR    F     Y1    EE    :      81.8   81.4   81.4   81.1   80.8   80.9  
##  2 YR    F     Y10   EE    :      72.9   72.5   72.5   72.2   72.0   71.9  
##  3 YR    F     Y11   EE    :      71.9   71.5   71.5   71.2   71.0   71.0  
##  4 YR    F     Y12   EE    :      70.9   70.5   70.5   70.2   70.0   70.0  
##  5 YR    F     Y13   EE    :      69.9   69.5   69.5   69.2   69.1   69.0  
##  6 YR    F     Y14   EE    :      68.9   68.5   68.5   68.2   68.1   68.0  
##  7 YR    F     Y15   EE    :      67.9   67.5   67.6   67.2   67.1   67.0  
##  8 YR    F     Y16   EE    :      67.0   66.5   66.6   66.3   66.1   66.0  
##  9 YR    F     Y17   EE    :      66.0   65.6   65.6   65.3   65.1   65.0  
## 10 YR    F     Y18   EE    :      65.0   64.6   64.6   64.3   64.1   64.0  
## # … with 248 more rows, and 52 more variables: `2011` <chr>, `2010` <chr>,
## #   `2009` <chr>, `2008` <chr>, `2007` <chr>, `2006` <chr>, `2005` <chr>,
## #   `2004` <chr>, `2003` <chr>, `2002` <chr>, `2001` <chr>, `2000` <chr>,
## #   `1999` <chr>, `1998` <chr>, `1997` <chr>, `1996` <chr>, `1995` <chr>,
## #   `1994` <chr>, `1993` <chr>, `1992` <chr>, `1991` <chr>, `1990` <chr>,
## #   `1989` <chr>, `1988` <chr>, `1987` <chr>, `1986` <chr>, `1985` <chr>,
## #   `1984` <chr>, `1983` <chr>, `1982` <chr>, `1981` <chr>, `1980` <chr>,
## #   `1979` <chr>, `1978` <chr>, `1977` <chr>, `1976` <chr>, `1975` <chr>,
## #   `1974` <chr>, `1973` <chr>, `1972` <chr>, `1971` <chr>, `1970` <chr>,
…
