Peatükk 6 Mitmikud, regulaaravaldised ja märksõnad | Lihtne tekstitöötlus R-is ja tidyverse’is
…
Esimene neist parameetritest on see, millele annab sisendi %>% toru käsk tidyverse töötluses. Antud juhul siis tbl, mis on sisendtabel. Enamasti ongi vaikimisi esimene sisend just andmestik, millega töötatakse. Parameetreid võib määrata järjekorra järgi, või andes ette parameetri nime. Näiteks unnest_tokens(word,text) on sama kui unnest_tokens(output=word, input=text) juhul kui alustabel tbl on söödetud käsu eestpoolt ja toruga.

Funktsioonil on aga veel parameetreid. Kõik parameetrid, millel on antud abifailis võrdusmärgiga = vaste, on parameetrid, millel on olemas vaikimisi väärtus. Ehk, kui me ise just teisiti ei määra, kasutab programm käsu vaikeväärtust. Vaikimisi võtab programm sõna ühikuks token = “words”. Samuti määrab ta vaikimisi, et to_lower = TRUE, misläbi muudetakse kõik suurtähed väiketähtedeks ja drop = TRUE, misläbi eemaldatakse sõnade leidmise aluseks olnud tulp. Kõikide parameetrite seletus on antud abifailis veidi allpool.

Vaadates lähemalt token parameetrit näeme, et sellel on hulga variante: “words” (vaikimisi), “characters”, “character_shingles”, “ngrams”, “skip_ngrams”, “sentences”, “lines,”paragraphs, “regex”, “tweets”, “ptb”. Meil ei ole neid kõiki praegu vaja, aga võime proovida varianti ngrams ehk mitmikud.

Meenutuseks, et eelmises õppetükis tegime sellise tabeli. Me võime seal eraldi märkida, et token = “words”, aga me võime selle ka ära jätta, kuna “words” on seal antud juhul vaikeväärtus.

edetabel %>%
  unnest_tokens(word, lyrics, token = "words")

## # A tibble: 157,632 x 9
##     year  rank votes artist   song    filename         source language word     
##    <dbl> <dbl> <dbl> <chr>    <chr>   <chr>             <dbl> <chr>    <chr>    
##  1  1994     1    NA Ummamuu… Kõnõtr… lyrics-ummamuud…      1 et       välän    
##  2  1994     1    NA Ummamuu… Kõnõtr… lyrics-ummamuud…      1 et       külmetas 
##  3  1994     1    NA Ummamuu… Kõnõtr… lyrics-ummamuud…      1 et       ja       
##  4  1994     1    NA Ummamuu… Kõnõtr… lyrics-ummamuud…      1 et       taivast  
##  5  1994     1    NA Ummamuu… Kõnõtr… lyrics-ummamuud…      1 et       satas    
##  6  1994     1    NA Ummamuu… Kõnõtr… lyrics-ummamuud…      1 et       lummõ    
##  7  1994     1    NA Ummamuu… Kõnõtr… lyrics-ummamuud…      1 et       ütle     
##  8  1994     1    NA Ummamuu… Kõnõtr… lyrics-ummamuud…      1 et       mullõ    
##  9  1994     1    NA Ummamuu… Kõnõtr… lyrics-ummamuud…      1 et       uma      
## 10  1994     1    NA Ummamuu… Kõnõtr… lyrics-ummamuud…      1 et       telefoni…
## # … with 157,622 more rows

Samas nägime abifailist, et seda võib ka muuta. Asetame siis selleks “ngrams”. Kui väärtuseks on määratud “ngrams”, siis me peame omakorda määrama selles lisaparameetreid. Nimelt soovib käsk teada, kui suuri mitmikuid me soovime. Määratleme minimaalse suuruse n_min = 2 ja maksimaalse suuruse n = 2. Sellisel juhul teeb unnest_tokens() sõnade tabeli asemel bigrammide tabeli.

edetabel %>%
  unnest_tokens(bigram, lyrics, token = "ngrams", n = 2, n_min = 2)

## # A tibble: 156,810 x 9
##     year  rank votes artist   song   filename        source language bigram     
##    <dbl> <dbl> <dbl> <chr>    <chr>  <chr>            <dbl> <chr>    <chr>      
##  1  1994     1    NA Ummamuu… Kõnõt… lyrics-ummamuu…      1 et       välän külm…
##  2  1994     1    NA Ummamuu… Kõnõt… lyrics-ummamuu…      1 et       külmetas ja
##  3  1994     1    NA Ummamuu… Kõnõt… lyrics-ummamuu…      1 et       ja taivast 
##  4  1994     1    NA Ummamuu… Kõnõt… lyrics-ummamuu…      1 et       taivast sa…
##  5  1994     1    NA Ummamuu… Kõnõt… lyrics-ummamuu…      1 et       satas lummõ
##  6  1994     1    NA Ummamuu… Kõnõt… lyrics-ummamuu…      1 et       lummõ ütle 
##  7  1994     1    NA Ummamuu… Kõnõt… lyrics-ummamuu…      1 et       ütle mullõ 
##  8  1994     1    NA Ummamuu… Kõnõt… lyrics-ummamuu…      1 et       mullõ uma  
##  9  1994     1    NA Ummamuu… Kõnõt… lyrics-ummamuu…      1 et       uma telefo…
## 10  1994     1    NA Ummamuu… Kõnõt… lyrics-ummamuu…      1 et       telefoninu…
## # … with 156,800 more rows

Proovime mängida parameetritega. Näiteks võime käsu sees määratleda ka et mitmike pikkus peaks olema ühest kolmeni. Sellisel juhul näitab käsk kõiki võimalikke mitmike suurusega ühest kolmeni, ehk nii sõnu, bigramme kui trigramme.

edetabel %>%
  unnest_tokens(bigram, lyrics, token = "ngrams", n = 3, n_min = 1)

## # A tibble: 470,074 x 9
##     year  rank votes artist   song   filename        source language bigram     
##    <dbl> <dbl> <dbl> <chr>    <chr>  <chr>            <dbl> <chr>    <chr>      
##  1  1994     1    NA Ummamuu… Kõnõt… lyrics-ummamuu…      1 et       välän      
##  2  1994     1    NA Ummamuu… Kõnõt… lyrics-ummamuu…      1 et       välän külm…
##  3  1994     1    NA Ummamuu… Kõnõt… lyrics-ummamuu…      1 et       välän külm…
##  4  1994     1    NA Ummamuu… Kõnõt… lyrics-ummamuu…      1 et       külmetas   
##  5  1994     1    NA Ummamuu… Kõnõt… lyrics-ummamuu…      1 et       külmetas ja
##  6  1994     1    NA Ummamuu… Kõnõt… lyrics-ummamuu…      1 et       külmetas j…
##  7  1994     1    NA Ummamuu… Kõnõt… lyrics-ummamuu…      1 et       ja         
##  8  1994     1    NA Ummamuu… Kõnõt… lyrics-ummamuu…      1 et       ja taivast 
##  9  1994     1    NA Ummamuu… Kõnõt… lyrics-ummamuu…      1 et       ja taivast…
## 10  1994     1    NA Ummamuu… Kõnõt… lyrics-ummamuu…      1 et       taivast    
## # … with 470,064 more rows

Võtame siis ette bigrammid. Et meil on tabelit korduvalt vaja ning selle tekitamine võtab hetk aega, salvestame selle tulemuse jälle muutujasse.

bigrams <- edetabel %>%
  unnest_tokens(bigram, lyrics, token = "ngrams", n = 2, n_min = 2)

Samamoodi kui sõnadest, saame me teha ka bigrammidest sagedustabeli. Levinud fraasid on ikka samad kui keeles ikka ‘ei saa’, ‘ei ole’, ‘ei tea’, ‘ma ei’, ‘ma olen’, ‘mul on’.

bigrams %>%
  count(bigram,sort=T)

## # A tibble: 76,888 x 2
##    bigram      n
##    <chr>   <int>
##  1 ei saa    357
##  2 ma ei     356
##  3 see on    241
##  4 ei ole    204
##  5 <NA>      178
##  6 ei tea    165
##  7 na na     165
##  8 on see    160
##  9 ma olen   145
## 10 mul on    138
## # … with 76,878 more rows

Nagu sai näidatud varasemates peatükkides saame loendada mitu tunnust korraga. Seeläbi saame näiteks kokku lugeda fraasikordusi ühes laulus. Näiteks na na, oo oo ja ba da on väga populaarsed fraasid.

bigrams %>%
  count(bigram,song,sort=T)

## # A tibble: 99,430 x 3
##    bigram       song                     n
##    <chr>        <chr>                <int>
##  1 na na        Tantsin valssi          68
##  2 na na        Tantsin Valssi          68
##  3 vesi peale   Vesi peale              56
##  4 oo oo        Rannamaja               50
##  5 ba da        Musi                    48
##  6 jalas polnud Peegelpõrand            48
##  7 polnud pükse Peegelpõrand            48
##  8 armastus on  Armastus On Armastus    47
##  9 pappi ei     Pankrot                 46
## 10 and i        Pictures                43
## # … with 99,420 more rows

Samas näeme sellega ära, et meie andmestik on veidi ebamugav selle kohta pealt, et mõni laul on seal mitu korda. Ja samas või selle laulu nimi olla sama või erinev. Kui me nüüd loendame ainult fraasi ja laulunime järgi, siis võib mõni lugu saada seal mitmekordsed numbrid, kuna laul justkui oleks kaks korda nii pikk kui ta on. Teisest küljest, me saame ühest ‘Tantsin valssi’ loost kätte juba info na na kohta, me ei pea seda kaks korda nägema.

Kui me loendame laulu, artisti ja aasta kombinatsioone, siis tabel juba mõneti muutubki. Näiteks “jalas polnud” ja “polnud pükse” kaovad edetabelist ära, kuna Peegelpõranda laul oli tabelis kaks aastat, mistõttu olid sõnasagedused leotud topelt.

bigrams %>%
  count(bigram,song,artist,year,sort=T)

## # A tibble: 105,352 x 5
##    bigram      song                 artist                           year     n
##    <chr>       <chr>                <chr>                           <dbl> <int>
##  1 na na       Tantsin valssi       Tuberkuloited & Urmas Voolpriit  2001    68
##  2 na na       Tantsin Valssi       The Tuberkuloited                2000    68
##  3 vesi peale  Vesi peale           N-Euro                           2000    56
##  4 oo oo       Rannamaja            Getter Jaani ja Koit Toome       2014    50
##  5 ba da       Musi                 Push Up                          2000    48
##  6 armastus on Armastus On Armastus Külalised                        2008    47
##  7 pappi ei    Pankrot              Toe Tag                          2005    46
##  8 and i       Pictures             Ewert And The Two Dragons        2014    43
##  9 ei saagi    Pankrot              Toe Tag                          2005    42
## 10 võid nii    Estonian business    Suur Papa                        2013    42
## # … with 105,342 more rows

6.2 Valimi parandamine

Me võime võtta nüüd selle arvesse ja püüda meie valimit varasemate teadmiste põhjal parandada. Nimelt, me teame, et mõnikord võib olla pealkiri sama, kuid erineda väike ja suurtähtedelt ning me teame, et mõned lood on tabelis mitu aastat ehk mitu korda.

Me saame aga oma tabelit muuta selle järgi. mutate() käsule saame anda sisendiks, et ta viiks tulbad väiketähtede kujule. Selleks on funktsioon tolower(). Ja me saame grupeerida ja filtreerida andmsetikku nii, et iga artisti ja laulu kombinatsiooni kohta jääb alles ainult esimene aasta.

edetabel %>%
  mutate(artist=tolower(artist),song=tolower(song)) %>% 
  group_by(artist,song) %>% 
  filter(year==min(year))

## # A tibble: 947 x 9
## # Groups:   artist, song [946]
##     year  rank votes artist   song    filename     source lyrics        language
##    <dbl> <dbl> <dbl> <chr>    <chr>   <chr>         <dbl> <chr>         <chr>   
##  1  1994     1    NA ummamuu… kõnõtr… lyrics-umma…      1 ":,:Välän kü… et      
##  2  1994     2    NA vennask… pille-… lyrics-venn…      1 "Taevas sine… et      
##  3  1994     3    NA jam      see 5   lyrics-jam-…      1 "See viis ha… et      
##  4  1994     4    NA the tub… lillek… lyrics-the_…      1 "Tüdruk vaat… et      
##  5  1994     5    NA the tub… põhjam… lyrics-the_…      1 "Kui käes on… et      
##  6  1994     6    NA jam      su jär… lyrics-jam-…      1 "Enne sind e… et      
##  7  1994     7    NA 2 quick… olen l… lyrics-2_qu…      1 "1. PÕHJUST … et      
##  8  1994     8    NA termina… torm    lyrics-term…      1 "Olen tulnud… et      
##  9  1994     9    NA 2 quick… sinu j… lyrics-2_qu…      1 "1. EKSISIN … et      
## 10  1994    10    NA d-gän    seib    lyrics-d-ga…      1 "ELASID KOOS… et      
## # … with 937 more rows
…
Salvestatud puhastatud tabelit saame kasutada nüüd sisendina edasiseks analüüsiks. Leiame uuesti bigrammid tekstide seast ning salvestame need vana muutuja asemele.

bigrams <-firstsongs %>%
  mutate(artist=tolower(artist),song=tolower(song)) %>% 
  group_by(artist,song) %>% 
  filter(year==min(year))%>%
  ungroup() %>% 
  unnest_tokens(bigram, lyrics, token = "ngrams", n = 2, n_min = 2)

Samuti nagu varem võime nüüd loendada bigramme laulude kohta. Seekord aga ei pea vaatama, mis aastaga tegemist on ja paljud kordused on nüüd kadunud. On muidugi lugusid, millel artisti või laulu nimi erineb aasta-aastalt veidi rohkem kui ainult suurtähtede ja väiketähtede kaudu - näiteks seesama tantsin valssi, mille artist on muutunud. Aga paljuski saame me nii juba täpsema info. Et kõik sama loo erinevad variandid saaks eemaldatud, tuleb veel täpsemalt proovida artisti nimesid ühitada. Praegu piirdume suur- ja väiketähtedega.

bigrams %>%
  count(bigram,song,artist,sort=T)

## # A tibble: 98,793 x 4
##    bigram      song                 artist                              n
##    <chr>       <chr>                <chr>                           <int>
##  1 na na       tantsin valssi       the tuberkuloited                  68
##  2 na na       tantsin valssi       tuberkuloited & urmas voolpriit    68
##  3 vesi peale  vesi peale           n-euro                             56
##  4 oo oo       rannamaja            getter jaani ja koit toome         50
##  5 ba da       musi                 push up                            48
##  6 armastus on armastus on armastus külalised                          47
##  7 pappi ei    pankrot              toe tag                            46
##  8 and i       pictures             ewert and the two dragons          43
##  9 ei saagi    pankrot              toe tag                            42
## 10 võid nii    estonian business    suur papa                          42
## # … with 98,783 more rows

6.3 Regulaaravaldised

Nagu varem sõnadega, võime me filtreerida seda tabelit ka fraasi kaupa. Näiteks ‘ei saa’ esinemised eri lauludes saame kätte niiviisi. Päris paljudes lauludes kordub fraas ‘ei saa’ mitmeid kordi. Tähele võib panna, et sellisel juhul on aga oluline, et fraas oleks täpselt selline nagu on kirjeldatud.

bigrams %>%
  count(bigram,song,sort=T) %>%
  filter(bigram=="ei saa")

## # A tibble: 149 x 3
##    bigram song                                n
##    <chr>  <chr>                           <int>
##  1 ei saa jagatud saladus                    17
##  2 ei saa tahan elada                        14
##  3 ei saa kesköödisko                         9
##  4 ei saa teine kadriorg                      9
##  5 ei saa sinise leegiga                      8
##  6 ei saa kallis                              7
##  7 ei saa lähedal                             6
##  8 ei saa miks ainult mõni asi on nii hea     6
##  9 ei saa väike saatan                        6
## 10 ei saa pankrot                             5
## # … with 139 more rows

Me teame varem koostatud sõnaloendite põhjal, et sõna ‘ei’ on neis tekstides üldse sage. Kui me nüüd tahaks teada, millises kontekstis sõna ‘ei’ esineb, ei saa me ette kirjutada kõiki eri variante. Sellisel puhul on meil võimalik kasutada käske tekstiosade kattuvuseks ning regulaaravaldisi. Tidyverse pakettides on ka tekstidega töötamiseks eraldi osa stringr, kus on meid aitavad kaks funktsiooni str_detect(), mis kontrollib, kas tekstis sisaldub ettekirjutatud jupp ja str_extract(), mis eraldab kirjutatud jupi tekstist.

str_detect(muutuja, “sõne”) - kontrolli, kas tekstis esineb selline järjend

str_extract(muutuja, “sõne”) - leia selline järjend tekstis ning esita leitud järjend

Need funktsioonid võtavad sisendina vaikimisi regulaaravaldisi, mis avardab meie otsimisvõimekust oluliselt. Otsides ainult järjendit ‘ei saa’ leiame, et meie esialgne otsing ei leidnud varianti, ei saagi, mida kordub ühe loo sees isegi kõige rohkem. Nimelt läheb edetabeli tippu toe tag pankrott, kus fraas ‘ei saagi’ esineb suisa 42 korda. Kuivõrd ta on tähenduselt üsna sarnane, siis on seda meilgi ehk oluline teada.

bigrams %>%
  count(bigram,song,sort=T) %>%
  filter(str_detect(bigram,"ei saa"))

## # A tibble: 177 x 3
##    bigram   song                                n
##    <chr>    <chr>                           <int>
##  1 ei saagi pankrot                            42
##  2 ei saa   jagatud saladus                    17
##  3 ei saa   tahan elada                        14
##  4 ei saa   kesköödisko                         9
##  5 ei saa   teine kadriorg                      9
##  6 ei saa   sinise leegiga                      8
##  7 ei saa   kallis                              7
##  8 ei saa   lähedal                             6
##  9 ei saa   miks ainult mõni asi on nii hea     6
## 10 ei saa   väike saatan                        6
## # … with 167 more rows

Me võime ka otsida kõiki sarnaseid fraase, mis algavad eitusega. Selleks otsime sõna ei, millele järgneb tühik ja siis ükskõik milline tähekombinatsioon. Ja saame, et neid eitavas vormides fraase on lugude seas veel. ei-ei, ei saa, ei hooli, ei pea, ei huvita ei lase, jne.

bigrams %>%
  count(bigram,song,sort=T) %>%
  filter(str_detect(bigram,"ei [a-zõäöü]+"))

## # A tibble: 1,607 x 3
##    bigram    song                  n
##    <chr>     <chr>             <int>
##  1 ei saagi  pankrot              42
##  2 ei ei     elupõletaja          36
##  3 ei saa    jagatud saladus      17
##  4 ei hooli  mälestused           16
##  5 ei pea    ei pea iial          15
##  6 ei huvita elupõletaja          14
##  7 ei lase   öö ei lase magada    14
##  8 ei saa    tahan elada          14
##  9 ei ole    võta aega            12
## 10 ei tagasi teine kadriorg       12
## # … with 1,597 more rows

Teine viis leida kõik fraasid, mis algavad sõnaga ei, on kasutada regulaaravaldiste teksti alguse tähist ^. Nii teab käsk, et ‘ei’ peab olema fraasi alguses.

bigrams %>%
  count(bigram,song,sort=T) %>%
  filter(str_detect(bigram,"^ei "))

## # A tibble: 1,553 x 3
##    bigram    song                  n
##    <chr>     <chr>             <int>
##  1 ei saagi  pankrot              42
##  2 ei ei     elupõletaja          36
##  3 ei saa    jagatud saladus      17
##  4 ei hooli  mälestused           16
##  5 ei pea    ei pea iial          15
##  6 ei huvita elupõletaja          14
##  7 ei lase   öö ei lase magada    14
##  8 ei saa    tahan elada          14
##  9 ei ole    võta aega            12
## 10 ei tagasi teine kadriorg       12
## # … with 1,543 more rows

Tõtt-öelda bigrammidega piisab ka tühikust, kuna neis on tühik alati esimesest sõnast paremal.

bigrams %>%
  count(bigram,song,sort=T) %>%
  filter(str_detect(bigram,"ei "))

## # A tibble: 1,610 x 3
##    bigram    song                  n
##    <chr>     <chr>             <int>
##  1 ei saagi  pankrot              42
##  2 ei ei     elupõletaja          36
##  3 ei saa    jagatud saladus      17
##  4 ei hooli  mälestused           16
##  5 ei pea    ei pea iial          15
##  6 ei huvita elupõletaja          14
##  7 ei lase   öö ei lase magada    14
##  8 ei saa    tahan elada          14
##  9 ei ole    võta aega            12
## 10 ei tagasi teine kadriorg       12
## # … with 1,600 more rows

Võime proovida otsida ka näiteks sidesõnale ja järgnevaid sõnu.

bigrams %>%
  count(bigram,song,sort=T) %>%
  filter(str_detect(bigram,"ja [a-zõäöü]+"))

## # A tibble: 2,624 x 3
##    bigram         song                         n
##    <chr>          <chr>                    <int>
##  1 ja ma          lase mul olla mina          14
##  2 russkaja vodka russkaja vodka              14
##  3 ja loodame     jää                         13
##  4 ja me          pankrot                     13
##  5 vaja kedagi    vihmapiisad päikest täis    13
##  6 ja kõik        küsin endalt nõu            12
##  7 ja ma          ma vaid palun               12
##  8 ja nooled      pilgud ja nooled            12
##  9 ja pole        pole sinu asi               12
## 10 ja silmad      su hääl su suu ja silmad    12
## # … with 2,614 more rows

Me võime otsida sedasi ükskõik mida.

bigrams %>%
  count(bigram,song,sort=T) %>%
  filter(str_detect(bigram,"ma "))

## # A tibble: 2,633 x 3
##    bigram         song                             n
##    <chr>          <chr>                        <int>
##  1 oma valu       ehitaja                         19
##  2 ma lähen       sinu ees                        18
##  3 ma tahan       ma tahan sind. sa vajad mind    16
##  4 ma šokolaadist šokolaadist jänes               14
##  5 umma tshaka    tsaka-tsaka                     14
##  6 umma umma      tsaka-tsaka                     14
##  7 ma ei          täna me ei skoori               13
##  8 ma lähen       mõtetes mõrudais                13
##  9 ilma okasteta  okkaline lill                   12
## 10 kuuma kuuma    maia                            12
## # … with 2,623 more rows
…
