Peatükk 5 Tekstitöötlus tidyverse’is | Lihtne tekstitöötlus R-is ja tidyverse’is
…
5.1 unnest_tokens()

Peamine käsk, mis aitab meil tekstidega R-is töötada on unnest_tokens(). unnest_tokens() võtab sisendiks ühe tekstitunnuse ning jaotab ta mingil alusel elementideks (tokeniseerib). Näiteks siis saab teha tekstidest sõnaloendi. Kui see on tehtud asetab ta iga elemendi omale reale, järgides tidy data põhimõtteid, et meil peaks olema üks vaatlusobjekt rea kohta. Lisaks eemaldab ta tekstist numbrid, kirjavahemärgid, suurtähed ning teeb muud eeltöötlust, et eraldada elemendid tekstist.

unnest_tokens() - muudab andmestikku nii et iga tekstitunnuse element oleks omal real.

Vaatame kõigepealt selle lihtsamat tulemust. Järgmine käsk võtab andmestiku tunnnuse lyrics, teeb selle elementideks (mis on vaikimisi sõnad) ning salvestab kõik ‘word’ nimelisse tulpa.

edetabel %>%
  unnest_tokens(word,lyrics)

## # A tibble: 157,632 x 9
##     year  rank votes artist   song    filename         source language word     
##    <dbl> <dbl> <dbl> <chr>    <chr>   <chr>             <dbl> <chr>    <chr>    
##  1  1994     1    NA Ummamuu… Kõnõtr… lyrics-ummamuud…      1 et       välän    
##  2  1994     1    NA Ummamuu… Kõnõtr… lyrics-ummamuud…      1 et       külmetas 
##  3  1994     1    NA Ummamuu… Kõnõtr… lyrics-ummamuud…      1 et       ja       
##  4  1994     1    NA Ummamuu… Kõnõtr… lyrics-ummamuud…      1 et       taivast  
##  5  1994     1    NA Ummamuu… Kõnõtr… lyrics-ummamuud…      1 et       satas    
##  6  1994     1    NA Ummamuu… Kõnõtr… lyrics-ummamuud…      1 et       lummõ    
##  7  1994     1    NA Ummamuu… Kõnõtr… lyrics-ummamuud…      1 et       ütle     
##  8  1994     1    NA Ummamuu… Kõnõtr… lyrics-ummamuud…      1 et       mullõ    
##  9  1994     1    NA Ummamuu… Kõnõtr… lyrics-ummamuud…      1 et       uma      
## 10  1994     1    NA Ummamuu… Kõnõtr… lyrics-ummamuud…      1 et       telefoni…
## # … with 157,622 more rows
…
Kuna me kasutame seda andmekuju korduvalt ja tokeniseerimine võtab iga kord veidi aega, salvestame selle töötluse tulemuse ja viitame edaspidi juba töötluse lõpptulemusele.

laulusonad <- edetabel %>%
  unnest_tokens(word,lyrics)

Selle tabeliga saame teha samasuguseid operatsioone kui edetabeliga enne. Näiteks võime võtta kõik sõnad, mis on ühelt bändilt.

laulusonad %>%
  filter(artist=="Smilers")

## # A tibble: 6,809 x 9
##     year  rank votes artist  song      filename           source language word  
##    <dbl> <dbl> <dbl> <chr>   <chr>     <chr>               <dbl> <chr>    <chr> 
##  1  1996     4  1192 Smilers Tahan Si… lyrics-smilers-ta…      1 et       hella…
##  2  1996     4  1192 Smilers Tahan Si… lyrics-smilers-ta…      1 et       luban 
##  3  1996     4  1192 Smilers Tahan Si… lyrics-smilers-ta…      1 et       sind  
##  4  1996     4  1192 Smilers Tahan Si… lyrics-smilers-ta…      1 et       hoida 
##  5  1996     4  1192 Smilers Tahan Si… lyrics-smilers-ta…      1 et       ma    
##  6  1996     4  1192 Smilers Tahan Si… lyrics-smilers-ta…      1 et       ja    
##  7  1996     4  1192 Smilers Tahan Si… lyrics-smilers-ta…      1 et       käia  
##  8  1996     4  1192 Smilers Tahan Si… lyrics-smilers-ta…      1 et       sind  
##  9  1996     4  1192 Smilers Tahan Si… lyrics-smilers-ta…      1 et       linna 
## 10  1996     4  1192 Smilers Tahan Si… lyrics-smilers-ta…      1 et       peal  
## # … with 6,799 more rows

laulusonad %>%
  filter(artist=="Terminaator")

## # A tibble: 7,006 x 9
##     year  rank votes artist     song  filename            source language word  
##    <dbl> <dbl> <dbl> <chr>      <chr> <chr>                <dbl> <chr>    <chr> 
##  1  1994     8    NA Terminaat… Torm  lyrics-terminaator…      1 et       olen  
##  2  1994     8    NA Terminaat… Torm  lyrics-terminaator…      1 et       tulnud
##  3  1994     8    NA Terminaat… Torm  lyrics-terminaator…      1 et       liiga 
##  4  1994     8    NA Terminaat… Torm  lyrics-terminaator…      1 et       pikalt
##  5  1994     8    NA Terminaat… Torm  lyrics-terminaator…      1 et       teelt 
##  6  1994     8    NA Terminaat… Torm  lyrics-terminaator…      1 et       tühja 
##  7  1994     8    NA Terminaat… Torm  lyrics-terminaator…      1 et       maja  
##  8  1994     8    NA Terminaat… Torm  lyrics-terminaator…      1 et       leids…
##  9  1994     8    NA Terminaat… Torm  lyrics-terminaator…      1 et       enda  
## 10  1994     8    NA Terminaat… Torm  lyrics-terminaator…      1 et       eest  
## # … with 6,996 more rows

laulusonad %>%
  filter(artist=="Ummamuudu")

## # A tibble: 163 x 9
##     year  rank votes artist   song    filename         source language word     
##    <dbl> <dbl> <dbl> <chr>    <chr>   <chr>             <dbl> <chr>    <chr>    
##  1  1994     1    NA Ummamuu… Kõnõtr… lyrics-ummamuud…      1 et       välän    
##  2  1994     1    NA Ummamuu… Kõnõtr… lyrics-ummamuud…      1 et       külmetas 
##  3  1994     1    NA Ummamuu… Kõnõtr… lyrics-ummamuud…      1 et       ja       
##  4  1994     1    NA Ummamuu… Kõnõtr… lyrics-ummamuud…      1 et       taivast  
##  5  1994     1    NA Ummamuu… Kõnõtr… lyrics-ummamuud…      1 et       satas    
##  6  1994     1    NA Ummamuu… Kõnõtr… lyrics-ummamuud…      1 et       lummõ    
##  7  1994     1    NA Ummamuu… Kõnõtr… lyrics-ummamuud…      1 et       ütle     
##  8  1994     1    NA Ummamuu… Kõnõtr… lyrics-ummamuud…      1 et       mullõ    
##  9  1994     1    NA Ummamuu… Kõnõtr… lyrics-ummamuud…      1 et       uma      
## 10  1994     1    NA Ummamuu… Kõnõtr… lyrics-ummamuud…      1 et       telefoni…
## # … with 153 more rows

Proovi ise! Vali välja üks artist ning võta tabelist välja ainult nende kasutatud sõnad

#---------------------------------------------

#---------------------------------------------

5.2 Sagedussõnastikud

Et sõnade valikutest midagi huvitavat teada saada, võime hakata neid loendama - ehk siis teha sagedussõnastiku.

laulusonad %>%
  count(word,sort=T)

## # A tibble: 19,046 x 2
##    word      n
##    <chr> <int>
##  1 on     4401
##  2 ja     3311
##  3 ei     2872
##  4 ma     2705
##  5 kui    1980
##  6 sa     1551
##  7 see    1505
##  8 et     1492
##  9 me     1165
## 10 veel   1088
## # … with 19,036 more rows

Nagu näeme, on enimkasutatud sõnad ka lauludes enamvähem samad kui keeles üldiselt. On, ja, ei, ma, kui, sa jne.

Me võime filtrite abil koostada ka sagedussõnastiku mõnele üksikule artistile ja vaadata neid ühekaupa.

laulusonad %>%
  filter(artist=="Põhja-Tallinn") %>%
  count(word,sort=T)

## # A tibble: 1,635 x 2
##    word      n
##    <chr> <int>
##  1 ei      219
##  2 on      189
##  3 ja      147
##  4 ma      146
##  5 kui     117
##  6 et      108
##  7 kõik     98
##  8 veel     71
##  9 sa       62
## 10 mis      56
## # … with 1,625 more rows

laulusonad %>%
  filter(artist=="Ummamuudu") %>%
  count(word,sort=T)

## # A tibble: 80 x 2
##    word               n
##    <chr>          <int>
##  1 ära               15
##  2 su                14
##  3 tunnen            14
##  4 ja                11
##  5 ma                 7
##  6 sinu               7
##  7 mullõ              5
##  8 telefoninummõr     5
##  9 uma                5
## 10 ütle               3
## # … with 70 more rows

laulusonad %>%
  filter(artist=="Nublu") %>%
  count(word,sort=T)

## # A tibble: 312 x 2
##    word      n
##    <chr> <int>
##  1 ka       39
##  2 ja       29
##  3 ma       29
##  4 mina     29
##  5 sa       23
##  6 ou       22
##  7 nagu     18
##  8 kui      15
##  9 ei       13
## 10 siis     13
## # … with 302 more rows
…
Pildi peal on kujutatud see ridadehulk, mis alles jääb. Täpsemalt öeldes, left_join() hoiab esimese tabeli terviklikuna. right_join() hoiab teise tabeli terviklikuna. inner_join() hoiab alles ainult kattuvad read. full_join() hoiab mõlemad tabelid terviklikuna. Ning anti_join() eemaldab teise tabeliga kattuvad read esimesest tabelist.

-left_join() - liidab vasakpoolse andmestiku külge need read, mis sobivad paremast.
- right_join() - liidab parempoolse andmestiku külge need read, mis sobivad vasakust.
- inner_join() - jätab alles ainult sobivad read kummastki
- full_join() - jätab alles kõik read mõlemast tabelist, isegi kui ükski ei kattu.
- anti_join() - töötab vastupidiselt ja eemaldab vasakust kõik read, mis ühtivad parempoolse tabeliga.

Hetkel on meil kaks tabelit. Käivita järgmised read, et neid näha.

laulusonad

## # A tibble: 157,632 x 9
##     year  rank votes artist   song    filename         source language word     
##    <dbl> <dbl> <dbl> <chr>    <chr>   <chr>             <dbl> <chr>    <chr>    
##  1  1994     1    NA Ummamuu… Kõnõtr… lyrics-ummamuud…      1 et       välän    
##  2  1994     1    NA Ummamuu… Kõnõtr… lyrics-ummamuud…      1 et       külmetas 
##  3  1994     1    NA Ummamuu… Kõnõtr… lyrics-ummamuud…      1 et       ja       
##  4  1994     1    NA Ummamuu… Kõnõtr… lyrics-ummamuud…      1 et       taivast  
##  5  1994     1    NA Ummamuu… Kõnõtr… lyrics-ummamuud…      1 et       satas    
##  6  1994     1    NA Ummamuu… Kõnõtr… lyrics-ummamuud…      1 et       lummõ    
##  7  1994     1    NA Ummamuu… Kõnõtr… lyrics-ummamuud…      1 et       ütle     
##  8  1994     1    NA Ummamuu… Kõnõtr… lyrics-ummamuud…      1 et       mullõ    
##  9  1994     1    NA Ummamuu… Kõnõtr… lyrics-ummamuud…      1 et       uma      
## 10  1994     1    NA Ummamuu… Kõnõtr… lyrics-ummamuud…      1 et       telefoni…
## # … with 157,622 more rows

stopsonad

## # A tibble: 5,025 x 1
##    word          
##    <chr>         
##  1 minutaolisteks
##  2 veeres        
##  3 samadeks      
##  4 karkääksti    
##  5 mihukeste     
##  6 ii-ha-ha      
##  7 milliseist    
##  8 selleks       
##  9 mõlemate      
## 10 praeguseiks   
## # … with 5,015 more rows

Nüüd, liidame tabeli ‘laulusonad’ tabeliga ‘stopsonad’, kasutades inner_join() funktsiooni ja teeme seda “word” nimelise tulba kaudu, mis on mõlemas tabelis olemas. Tegelikult otsivad tidyverse join() käsud ka ise samanimelisi tulpasid ja kui neile täpsemaid juhiseid pole antud, siis ühendavad need. Kui me tegeleme uue andmestikuga on kasulik see alati välja kirjutada, et ei tekiks vigu.

laulusonad %>%
  inner_join(stopsonad,by="word")

## # A tibble: 67,862 x 9
##     year  rank votes artist    song     filename           source language word 
##    <dbl> <dbl> <dbl> <chr>     <chr>    <chr>               <dbl> <chr>    <chr>
##  1  1994     1    NA Ummamuudu Kõnõtra… lyrics-ummamuudu-…      1 et       ja   
##  2  1994     1    NA Ummamuudu Kõnõtra… lyrics-ummamuudu-…      1 et       su   
##  3  1994     1    NA Ummamuudu Kõnõtra… lyrics-ummamuudu-…      1 et       läbi 
##  4  1994     1    NA Ummamuudu Kõnõtra… lyrics-ummamuudu-…      1 et       meil 
##  5  1994     1    NA Ummamuudu Kõnõtra… lyrics-ummamuudu-…      1 et       ja   
##  6  1994     1    NA Ummamuudu Kõnõtra… lyrics-ummamuudu-…      1 et       ja   
##  7  1994     2    NA Vennasko… Pille-R… lyrics-vennaskond…      1 et       ja   
##  8  1994     2    NA Vennasko… Pille-R… lyrics-vennaskond…      1 et       kuhu…
##  9  1994     2    NA Vennasko… Pille-R… lyrics-vennaskond…      1 et       on   
## 10  1994     2    NA Vennasko… Pille-R… lyrics-vennaskond…      1 et       on   
## # … with 67,852 more rows

See käsk niisiis leidis ainult kattuvad read kahes tabelis ning seeläbi jättis alles kõikidest lugudest ainult stopsõnad. Kui meid huvitavad näiteks asesõnade kasutus või sõnakordused, siis võimalik, et täpselt see meid huvitabki.

Me võime proovida neid kahte tabelit liita left_join() funktsiooni kaudu. Sellega küll ei muutu midagi, kuna liidetud tabel stopsonad sisaldabki ainult ühte tulpa, ning liidetud sõnad sulanduvad esimesse tabelisse.

laulusonad %>%
  left_join(stopsonad,by="word")

## # A tibble: 157,632 x 9
##     year  rank votes artist   song    filename         source language word     
##    <dbl> <dbl> <dbl> <chr>    <chr>   <chr>             <dbl> <chr>    <chr>    
##  1  1994     1    NA Ummamuu… Kõnõtr… lyrics-ummamuud…      1 et       välän    
##  2  1994     1    NA Ummamuu… Kõnõtr… lyrics-ummamuud…      1 et       külmetas 
##  3  1994     1    NA Ummamuu… Kõnõtr… lyrics-ummamuud…      1 et       ja       
##  4  1994     1    NA Ummamuu… Kõnõtr… lyrics-ummamuud…      1 et       taivast  
##  5  1994     1    NA Ummamuu… Kõnõtr… lyrics-ummamuud…      1 et       satas    
##  6  1994     1    NA Ummamuu… Kõnõtr… lyrics-ummamuud…      1 et       lummõ    
##  7  1994     1    NA Ummamuu… Kõnõtr… lyrics-ummamuud…      1 et       ütle     
##  8  1994     1    NA Ummamuu… Kõnõtr… lyrics-ummamuud…      1 et       mullõ    
##  9  1994     1    NA Ummamuu… Kõnõtr… lyrics-ummamuud…      1 et       uma      
## 10  1994     1    NA Ummamuu… Kõnõtr… lyrics-ummamuud…      1 et       telefoni…
## # … with 157,622 more rows

Et kattuvad read ära markeerida võime teha stopsõnade tabelisse uue tulba, mis märgib, et on tõene, et see sõna on stopsõna.

stopsonad2 <- stopsonad %>%
  mutate(onstopsona=TRUE)

Kui me nüüd ühendame tabelid left_join() kaudu, siis saame kaasa ka selle lisatulba.

laulusonad %>%
  left_join(stopsonad2,by="word")

## # A tibble: 157,632 x 10
##     year  rank votes artist  song   filename   source language word   onstopsona
##    <dbl> <dbl> <dbl> <chr>   <chr>  <chr>       <dbl> <chr>    <chr>  <lgl>     
##  1  1994     1    NA Ummamu… Kõnõt… lyrics-um…      1 et       välän  NA        
##  2  1994     1    NA Ummamu… Kõnõt… lyrics-um…      1 et       külme… NA        
##  3  1994     1    NA Ummamu… Kõnõt… lyrics-um…      1 et       ja     TRUE      
##  4  1994     1    NA Ummamu… Kõnõt… lyrics-um…      1 et       taiva… NA        
##  5  1994     1    NA Ummamu… Kõnõt… lyrics-um…      1 et       satas  NA        
##  6  1994     1    NA Ummamu… Kõnõt… lyrics-um…      1 et       lummõ  NA        
##  7  1994     1    NA Ummamu… Kõnõt… lyrics-um…      1 et       ütle   NA        
##  8  1994     1    NA Ummamu… Kõnõt… lyrics-um…      1 et       mullõ  NA        
##  9  1994     1    NA Ummamu… Kõnõt… lyrics-um…      1 et       uma    NA        
## 10  1994     1    NA Ummamu… Kõnõt… lyrics-um…      1 et       telef… NA        
## # … with 157,622 more rows
…
Seal näeme, et teksti koguhulgast on stopsõnu veidi alla poole ja veidi üle poole on kõiki muid sõnu.

Samal põhimõttel võime ka leida kõige stopsõnaderikkama laulu.

laulusonad %>%
  left_join(stopsonad2,by="word") %>%
  group_by(artist,song) %>%
  count(onstopsona) %>%
  mutate(proportsioon=n/sum(n)) %>% #  proportsiooni võime arvutada jagades loendatud arvu kõikide arvude summaga.
                                    #  kuna tabel on ikka veel gruppideks jaotatud, siis seda loetakse iga artisti-laulu sees
  filter(onstopsona==TRUE) %>%
  arrange(desc(proportsioon))

## # A tibble: 781 x 5
## # Groups:   artist, song [781]
##    artist              song                        onstopsona     n proportsioon
##    <chr>               <chr>                       <lgl>      <int>        <dbl>
##  1 Hnd                 Kui Sa Vaid Saad            TRUE          80        0.762
##  2 HND                 Kui sa vaid saad            TRUE          80        0.762
##  3 Ott Lepland         Siin me kokku saime         TRUE         139        0.739
##  4 Nancy               Keegi Teine                 TRUE          84        0.724
##  5 Jam                 Ei pea iial                 TRUE         145        0.721
##  6 HU?                 Mina Ise                    TRUE          90        0.714
##  7 Ines                Ma ei tea mis juhtuks       TRUE         188        0.709
##  8 Ott Lepland         Otsides Ma Pean Su Jälle L… TRUE          61        0.709
##  9 Jam                 Ainus Tee                   TRUE         213        0.708
## 10 Vaiko Eplik Ja Eli… Armastus Päästab Maailma    TRUE          69        0.704
## # … with 771 more rows
Ja saame loo HND ‘Kui sa vaid saad’, millel on kolm neljandikku sõnu stopsõnad. Ainuüksi pealkiri koosnebki ainult stopsõnadest.

Proovi ise! Vali välja üks artist ja vaata milliseid stopsõnu nad kasutavad ja kui palju.

#---------------------------------------------

#---------------------------------------------

Enamasti on aga stopsõnade nimekiri kasulik, et need sõnad tekstist eemaldada. Näiteks võime võtta sama tabeli ja jätta alles ainult sõnad, mis ei ole stopsõnad. Selleks kasutame algusest tuttavat funktsiooni is.na(), mis kontrollib kas väärtus on puuduv. onstopsona == NA ei töötaks, kuna R-i jaoks on puuduvad väärtused erilised.

laulusonad %>%
  left_join(stopsonad2,by="word") %>%
  filter(is.na(onstopsona))

## # A tibble: 89,770 x 10
##     year  rank votes artist  song   filename   source language word   onstopsona
##    <dbl> <dbl> <dbl> <chr>   <chr>  <chr>       <dbl> <chr>    <chr>  <lgl>     
##  1  1994     1    NA Ummamu… Kõnõt… lyrics-um…      1 et       välän  NA        
##  2  1994     1    NA Ummamu… Kõnõt… lyrics-um…      1 et       külme… NA        
##  3  1994     1    NA Ummamu… Kõnõt… lyrics-um…      1 et       taiva… NA        
##  4  1994     1    NA Ummamu… Kõnõt… lyrics-um…      1 et       satas  NA        
##  5  1994     1    NA Ummamu… Kõnõt… lyrics-um…      1 et       lummõ  NA        
##  6  1994     1    NA Ummamu… Kõnõt… lyrics-um…      1 et       ütle   NA        
##  7  1994     1    NA Ummamu… Kõnõt… lyrics-um…      1 et       mullõ  NA        
##  8  1994     1    NA Ummamu… Kõnõt… lyrics-um…      1 et       uma    NA        
##  9  1994     1    NA Ummamu… Kõnõt… lyrics-um…      1 et       telef… NA        
## 10  1994     1    NA Ummamu… Kõnõt… lyrics-um…      1 et       hamõ   NA        
## # … with 89,760 more rows

Täpselt sama teeb ka käsk anti_join(), mis jätab kõrvale kõik read, kus tunnused on sama väärtusega. Seda kasutame ka edaspidi.

laulusonad %>%
  anti_join(stopsonad,by="word")

## # A tibble: 89,770 x 9
##     year  rank votes artist   song    filename         source language word     
##    <dbl> <dbl> <dbl> <chr>    <chr>   <chr>             <dbl> <chr>    <chr>    
##  1  1994     1    NA Ummamuu… Kõnõtr… lyrics-ummamuud…      1 et       välän    
##  2  1994     1    NA Ummamuu… Kõnõtr… lyrics-ummamuud…      1 et       külmetas 
##  3  1994     1    NA Ummamuu… Kõnõtr… lyrics-ummamuud…      1 et       taivast  
##  4  1994     1    NA Ummamuu… Kõnõtr… lyrics-ummamuud…      1 et       satas    
##  5  1994     1    NA Ummamuu… Kõnõtr… lyrics-ummamuud…      1 et       lummõ    
##  6  1994     1    NA Ummamuu… Kõnõtr… lyrics-ummamuud…      1 et       ütle     
##  7  1994     1    NA Ummamuu… Kõnõtr… lyrics-ummamuud…      1 et       mullõ    
##  8  1994     1    NA Ummamuu… Kõnõtr… lyrics-ummamuud…      1 et       uma      
##  9  1994     1    NA Ummamuu… Kõnõtr… lyrics-ummamuud…      1 et       telefoni…
## 10  1994     1    NA Ummamuu… Kõnõtr… lyrics-ummamuud…      1 et       hamõ     
## # … with 89,760 more rows

Sellega loendada kokku kõik sõnad, mis pole stopsõnad ja teha neist sagedustabeli.

laulusonad %>%
  anti_join(stopsonad,by="word") %>%
  count(word,sort=T)

## # A tibble: 18,164 x 2
##    word      n
##    <chr> <int>
##  1 the    1033
##  2 you    1021
##  3 to      658
##  4 and     572
##  5 my      465
##  6 it      442
##  7 ref     374
##  8 täna    325
##  9 tean    296
## 10 hea     289
## # … with 18,154 more rows
…
