Peatükk 4 Tidyverse paketid | Lihtne tekstitöötlus R-is ja tidyverse’is
…
## Parsed with column specification:
## cols(
##   year = col_double(),
##   rank = col_double(),
##   votes = col_double(),
##   artist = col_character(),
##   song = col_character(),
##   filename = col_character(),
##   source = col_double(),
##   lyrics = col_character(),
##   language = col_character()
## )

## # A tibble: 1,000 x 9
##     year  rank votes artist   song    filename     source lyrics        language
##    <dbl> <dbl> <dbl> <chr>    <chr>   <chr>         <dbl> <chr>         <chr>   
##  1  1994     1    NA Ummamuu… Kõnõtr… lyrics-umma…      1 ":,:Välän kü… et      
##  2  1994     2    NA Vennask… Pille-… lyrics-venn…      1 "Taevas sine… et      
##  3  1994     3    NA Jam      See 5   lyrics-jam-…      1 "See viis ha… et      
##  4  1994     4    NA The Tub… Lillek… lyrics-the_…      1 "Tüdruk vaat… et      
##  5  1994     5    NA The Tub… Põhjam… lyrics-the_…      1 "Kui käes on… et      
##  6  1994     6    NA Jam      Su Jär… lyrics-jam-…      1 "Enne sind e… et      
##  7  1994     7    NA 2 Quick… Olen L… lyrics-2_qu…      1 "1. PÕHJUST … et      
##  8  1994     8    NA Termina… Torm    lyrics-term…      1 "Olen tulnud… et      
##  9  1994     9    NA 2 Quick… Sinu J… lyrics-2_qu…      1 "1. EKSISIN … et      
## 10  1994    10    NA D-Gän    Seib    lyrics-d-ga…      1 "ELASID KOOS… et      
## # … with 990 more rows
…
select() valib tunnused andmestikust

filter() viib andmestiku läbi filtri/sõela

unique() - võtab tabelist ainult unikaalsed read

sample_n() - võtab ettemääratud suurusega hulga ridu tabelist

Käsk select() valib andmestikust teatud tulbad. Seda võib teha nime kaudu või mingil muul alusel, nii võib saada ühe või mitu tulpa. Kirjutades select(year) toru järgi valime siis year-nimelise tulba, ehk tulba kus on aastaarvud.

edetabel %>% 
  select(year)

## # A tibble: 1,000 x 1
##     year
##    <dbl>
##  1  1994
##  2  1994
##  3  1994
##  4  1994
##  5  1994
##  6  1994
##  7  1994
##  8  1994
##  9  1994
## 10  1994
## # … with 990 more rows

Käsk unique() valib andmestikust kõik read, mis on unikaalse. Näiteks valides unikaalsed read aasta tulbast saame jada 25-st erinevast aastast, mis on andmestikus.

edetabel %>% 
  select(year) %>% 
  unique()

## # A tibble: 25 x 1
##     year
##    <dbl>
##  1  1994
##  2  1995
##  3  1996
##  4  1997
##  5  1998
##  6  1999
##  7  2000
##  8  2001
##  9  2002
## 10  2003
## # … with 15 more rows

Kui me võtame unikaalsed read tervest andmestikust, saame vastuseks sama andmestiku, kuna kõik read on seal unikaalsed.

edetabel %>% 
  unique()

## # A tibble: 1,000 x 9
##     year  rank votes artist   song    filename     source lyrics        language
##    <dbl> <dbl> <dbl> <chr>    <chr>   <chr>         <dbl> <chr>         <chr>   
##  1  1994     1    NA Ummamuu… Kõnõtr… lyrics-umma…      1 ":,:Välän kü… et      
##  2  1994     2    NA Vennask… Pille-… lyrics-venn…      1 "Taevas sine… et      
##  3  1994     3    NA Jam      See 5   lyrics-jam-…      1 "See viis ha… et      
##  4  1994     4    NA The Tub… Lillek… lyrics-the_…      1 "Tüdruk vaat… et      
##  5  1994     5    NA The Tub… Põhjam… lyrics-the_…      1 "Kui käes on… et      
##  6  1994     6    NA Jam      Su Jär… lyrics-jam-…      1 "Enne sind e… et      
##  7  1994     7    NA 2 Quick… Olen L… lyrics-2_qu…      1 "1. PÕHJUST … et      
##  8  1994     8    NA Termina… Torm    lyrics-term…      1 "Olen tulnud… et      
##  9  1994     9    NA 2 Quick… Sinu J… lyrics-2_qu…      1 "1. EKSISIN … et      
## 10  1994    10    NA D-Gän    Seib    lyrics-d-ga…      1 "ELASID KOOS… et      
## # … with 990 more rows

Kui me soovime kätte saada mingeid konkreetseid ridu, mis vastavad teatud tunnustele, võime andmestiku läbi lasta filter() käsust. Sellisel juhul peame filter() sisse kirjutama tingimuse, mis peab vastama kas tõele või väärale ehk see peab kontrollima võrdsust nagu eelmises tükis sai näidatud.

Näiteks, kui me tahame leida kõiki Smilersi lugusid võime me otsida välja kõik read, kus tunnus artist on sama kui tekst “Smilers”. Tähtis on selle päringu juures, et see tunnus peab olema täpselt sama. Pane tähele ka, et siin on siis kasutatud topeltvõrdumärki ==.

edetabel %>% 
  filter(artist=="Smilers")

## # A tibble: 47 x 9
##     year  rank votes artist  song    filename    source lyrics          language
##    <dbl> <dbl> <dbl> <chr>   <chr>   <chr>        <dbl> <chr>           <chr>   
##  1  1996     4  1192 Smilers Tahan … lyrics-smi…      1 hellalt luban … et      
##  2  1997    23   216 Smilers Viis K… lyrics-smi…      1 tunne on hea j… et      
##  3  1997    30   146 Smilers Lähme … lyrics-smi…      1 sa väljakutsuv… et      
##  4  1998     1  1216 Smilers Tantsi… lyrics-smi…      1 Kuu on täis is… et      
##  5  1998    12   267 Smilers Mõtlen… lyrics-smi…      1 täna ärkasin v… et      
##  6  1998    18   169 Smilers Ära Vi… lyrics-smi…      1 Tahan olla su … et      
##  7  1998    21   133 Smilers Mõistu… lyrics-smi…      1 suhe meil suju… et      
##  8  1998    22   129 Smilers Nagu H… lyrics-smi…      1 Ma tean et see… et      
##  9  1998    28   101 Smilers Aega P… lyrics-smi…      1 ma ennast jäll… et      
## 10  1998    29   100 Smilers Sinu K… lyrics-smi…      1 Oma kolmteist … et      
## # … with 37 more rows
…
Proovi nüüd ise leida kõik Ummamuudu lood, kirjutades sarnane koodijupp siia alla.

#---------------------------------------------

#---------------------------------------------

Me võime ka kombineerida omavahel filter() ja select(), et saata väiksema ülevaate tabelist. Näiteks võime võtta välja kõikide Smilersi lugude aastad ja pealkirjad.

edetabel%>% 
  filter(artist=="Smilers") %>% 
  select(year,song)

## # A tibble: 47 x 2
##     year song                 
##    <dbl> <chr>                
##  1  1996 Tahan Sind           
##  2  1997 Viis Kasti Õlut      
##  3  1997 Lähme sõidame        
##  4  1998 Tantsin Sinuga Taevas
##  5  1998 Mõtlen Sinust        
##  6  1998 Ära Viska Mind Ära   
##  7  1998 Mõistus On Kadunud   
##  8  1998 Nagu Hunt            
##  9  1998 Aega Parajaks Teen   
## 10  1998 Sinu Küljes Kinni    
## # … with 37 more rows
…
Või näiteks 2000 ja 2008 aasta vahel.

edetabel%>% 
  filter(artist=="Smilers") %>% 
  select(year,song) %>% 
  filter(year>2000) %>% 
  filter(year<2008)

## # A tibble: 23 x 2
##     year song                      
##    <dbl> <chr>                     
##  1  2001 Mina, Pets, Margus & Priit
##  2  2001 Jalgpall on parem kui seks
##  3  2001 Kalamaja cowboy           
##  4  2001 Upun su silmadesse        
##  5  2001 Mõtlen sinust             
##  6  2001 Meteoriitide sajus        
##  7  2002 Meteoriitide sajus        
##  8  2002 Jalgpall on parem kui sex 
##  9  2002 Kvaliteetaeg              
## 10  2003 Käime katuseid mööda      
## # … with 13 more rows

Soovi korral võib mitu filtrit ka ühendada ühte käsku. Sel juhul tuleb kasutada & märki nende ühendamiseks.

edetabel%>% 
  filter(artist=="Smilers") %>% 
  select(year,song) %>% 
  filter(year>2000 & year<2008)

## # A tibble: 23 x 2
##     year song                      
##    <dbl> <chr>                     
##  1  2001 Mina, Pets, Margus & Priit
##  2  2001 Jalgpall on parem kui seks
##  3  2001 Kalamaja cowboy           
##  4  2001 Upun su silmadesse        
##  5  2001 Mõtlen sinust             
##  6  2001 Meteoriitide sajus        
##  7  2002 Meteoriitide sajus        
##  8  2002 Jalgpall on parem kui sex 
##  9  2002 Kvaliteetaeg              
## 10  2003 Käime katuseid mööda      
## # … with 13 more rows

Me võime ka kõik filtrid panna kokku ühte käsku

edetabel%>% 
  filter(artist=="Smilers" & year>2000 & year<2008) %>% 
  select(year,song)

## # A tibble: 23 x 2
##     year song                      
##    <dbl> <chr>                     
##  1  2001 Mina, Pets, Margus & Priit
##  2  2001 Jalgpall on parem kui seks
##  3  2001 Kalamaja cowboy           
##  4  2001 Upun su silmadesse        
##  5  2001 Mõtlen sinust             
##  6  2001 Meteoriitide sajus        
##  7  2002 Meteoriitide sajus        
##  8  2002 Jalgpall on parem kui sex 
##  9  2002 Kvaliteetaeg              
## 10  2003 Käime katuseid mööda      
## # … with 13 more rows

Filtrite puhul võime kasutada ka või | märki. Näiteks võime sama käsku väljedada ka mitte piirkondadega, vaid andes ette võimalikud variandi võiga.

edetabel%>% 
  filter(artist=="Smilers") %>% 
  select(year,song) %>% 
  filter(year==2001 | year==2002 | year==2003 | year==2004 | year==2005 | year==2006 | year==2007)

## # A tibble: 23 x 2
##     year song                      
##    <dbl> <chr>                     
##  1  2001 Mina, Pets, Margus & Priit
##  2  2001 Jalgpall on parem kui seks
##  3  2001 Kalamaja cowboy           
##  4  2001 Upun su silmadesse        
##  5  2001 Mõtlen sinust             
##  6  2001 Meteoriitide sajus        
##  7  2002 Meteoriitide sajus        
##  8  2002 Jalgpall on parem kui sex 
##  9  2002 Kvaliteetaeg              
## 10  2003 Käime katuseid mööda      
## # … with 13 more rows

Viimaks võime kasutada ka eelpool mainitud %in% käsku, mis kontrollib väärtuse olemasolu jadas.

edetabel%>% 
  filter(artist=="Smilers") %>% 
  select(year,song) %>% 
  filter(year %in% 2001:2007)

## # A tibble: 23 x 2
##     year song                      
##    <dbl> <chr>                     
##  1  2001 Mina, Pets, Margus & Priit
##  2  2001 Jalgpall on parem kui seks
##  3  2001 Kalamaja cowboy           
##  4  2001 Upun su silmadesse        
##  5  2001 Mõtlen sinust             
##  6  2001 Meteoriitide sajus        
##  7  2002 Meteoriitide sajus        
##  8  2002 Jalgpall on parem kui sex 
##  9  2002 Kvaliteetaeg              
## 10  2003 Käime katuseid mööda      
## # … with 13 more rows
…
4.6 count(), group_by()

Et meil on tegemist edetabeliga, siis püüame kõigepealt selle tippudest aru saada. Selle jaoks on tidyverse andmetöötluses olemas eraldi käsk count(). Kasulik on siin vaadata ka käsku group_by().

count() - loeb esinemiste arvu

group_by() - grupeerib tabeli mingi tunnuse alusel.

Et saada tabelist ja selle sisust paremat ülevaadet, on võimalik selles esinevaid väärtusi ka loendada. Näiteks vaatame artistide esinemiskordasid top 40s. Esinemiskordade arv sai salvestatud tulpa n.

edetabel %>%
  count(artist)

## # A tibble: 348 x 2
##    artist                            n
##    <chr>                         <int>
##  1 2 Quick Start                    24
##  2 2 Quick Start & Hedvig Hanson     1
##  3 4 Ever                            1
##  4 5miinust                          1
##  5 5MIINUST                          1
##  6 5MIINUST x Sass Henno             1
##  7 6-Pack                            1
##  8 A-Rühm                            7
##  9 Agape                             1
## 10 Agent M                           1
## # … with 338 more rows

Käskudele saab ka lisada parameetreid. Need on eraldatud sisendist komaga. Näiteks count() puhul on võimalik lisada parameeter sort=T, mis järjestab loenduse tulemused suurest väiksemani. Täpsemalt ütleme siis käsule, et lugegu sort väärtuseks T, kui vaikimisi võib ta olla midagi muud.

Nii saame kätte artistid, kes said kõige enam tabelisse.

edetabel %>%
  count(artist,sort=T)

## # A tibble: 348 x 2
##    artist                    n
##    <chr>                 <int>
##  1 Smilers                  47
##  2 Terminaator              46
##  3 2 Quick Start            24
##  4 Ines                     21
##  5 Tanel Padar & The Sun    16
##  6 Ott Lepland              15
##  7 Caater                   14
##  8 Põhja-Tallinn            14
##  9 Jam                      12
## 10 Laura                    12
## # … with 338 more rows
…
Näeme et 686 lugu on eestikeelset, 133 lugu on ingliskeelset ja 178 loo puhul ei tea me täpselt, mis keeles need on. See on andmestiku eripära, enamikes andmestikes on puuduvaid andmeid. Andmete puuduvuse kontrollimine ei käi võrdusmärkidega, aga funktsiooniga is.na(). Näiteks filter(is.na(language)) annab meile kõik lood, kus on keel puudu.

edetabel %>% 
  filter(is.na(language))

## # A tibble: 178 x 9
##     year  rank votes artist        song          filename source lyrics language
##    <dbl> <dbl> <dbl> <chr>         <chr>         <chr>     <dbl> <chr>  <chr>   
##  1  1994    13    NA Nancy         Mul luba loo… <NA>         NA <NA>   <NA>    
##  2  1994    16    NA Kuldne Trio   Ütlen Sulle A <NA>         NA <NA>   <NA>    
##  3  1994    20    NA Kuldne Trio   Ulla-Tralla   <NA>         NA <NA>   <NA>    
##  4  1994    27    NA Evelin Samuel Vari Ja Roos  <NA>         NA <NA>   <NA>    
##  5  1994    29    NA Jam           Öised Teed    <NA>         NA <NA>   <NA>    
##  6  1994    32    NA Kuldne Trio   Vana roosa    <NA>         NA <NA>   <NA>    
##  7  1994    36    NA Evelin Samuel Flight        <NA>         NA <NA>   <NA>    
##  8  1994    37    NA MC Leo        Keegi Veel    <NA>         NA <NA>   <NA>    
##  9  1994    39    NA Double +      Sel Tänaval   <NA>         NA <NA>   <NA>    
## 10  1994    40    NA Agape         Grungemees    <NA>         NA <NA>   <NA>    
## # … with 168 more rows
…
puuduvad <- edetabel %>% 
  filter(is.na(language))

Ja vaatame talle sisse.

View(puuduvad)

Selgub, et keel on puudu, sellepärast et lauludel ei ole sõnu lisatud. Sellega tuleb andmestikes arvestada. Samas artistide või laulupealkirjade loendamiseks sobivad need siiski.

Katsetame veel count() funktsiooni. Võime näiteks kokku lugeda, mitu korda esineb iga aastat, ehk et mitu lugu on igas aastas. Näeme, et kenasti 40 lugu aastas on top 40-s.

edetabel %>% 
  count(year)

## # A tibble: 25 x 2
##     year     n
##    <dbl> <int>
##  1  1994    40
##  2  1995    40
##  3  1996    40
##  4  1997    40
##  5  1998    40
##  6  1999    40
##  7  2000    40
##  8  2001    40
##  9  2002    40
## 10  2003    40
## # … with 15 more rows

Me võime loendada mitut gruppi korraga. Näiteks loendades, mitu korda on artist ja aastaarv koos, saame teada mitu lugu artistilt sel aastal edetabelis oli.

edetabel %>% 
  count(artist,year,sort =T) 

## # A tibble: 687 x 3
##    artist                 year     n
##    <chr>                 <dbl> <int>
##  1 Jam                    1994     7
##  2 Smilers                1998     7
##  3 Smilers                2001     6
##  4 Tanel Padar @ The Sun  2007     6
##  5 Tanel Padar & The Sun  2006     6
##  6 Terminaator            2003     6
##  7 2 Quick Start          1994     5
##  8 Ines                   2005     5
##  9 Nancy                  1995     5
## 10 Nexus                  2005     5
## # … with 677 more rows

Me võime ka loendada neid gruppe korduvalt. Näiteks loendades seal veelkord aastaarvu, saame teada, mitu erinevat artisti oli konkreetsel aastal edetabelis.

edetabel %>% 
  count(artist,year) %>% 
  count(year)

## # A tibble: 25 x 2
##     year     n
##    <dbl> <int>
##  1  1994    20
##  2  1995    25
##  3  1996    25
##  4  1997    23
##  5  1998    23
##  6  1999    26
##  7  2000    31
##  8  2001    25
##  9  2002    29
## 10  2003    20
## # … with 15 more rows
…
#---------------------------------------------

Proovi ka teada saada, mitu lugu oli mis keeles 1994 aastal ja 2014 aastal.

#---------------------------------------------

#---------------------------------------------

Võib märgata, et kui me loendame tunnuste väärtuseid tabelis, siis me jaotame oma andmestiku gruppideks ja ütleme kui palju seal väärtuseid on. Selleks on olemas R-is ka üldisem funktsioon group_by(). Kui me loendasime artiste aasta peale kasutades count() käsus kaht tunnust, nagu all, siis võime seda teisiti sõnastada ka, et me grupeerisime andmestiku artistide kaupa ja loendasime esinemisi aastas.

edetabel %>% 
  count(artist,year,sort =T) 

## # A tibble: 687 x 3
##    artist                 year     n
##    <chr>                 <dbl> <int>
##  1 Jam                    1994     7
##  2 Smilers                1998     7
##  3 Smilers                2001     6
##  4 Tanel Padar @ The Sun  2007     6
##  5 Tanel Padar & The Sun  2006     6
##  6 Terminaator            2003     6
##  7 2 Quick Start          1994     5
##  8 Ines                   2005     5
##  9 Nancy                  1995     5
## 10 Nexus                  2005     5
## # … with 677 more rows

edetabel %>% 
  group_by(artist) %>% 
  count(year,sort =T) 

## # A tibble: 687 x 3
## # Groups:   artist [348]
##    artist                 year     n
##    <chr>                 <dbl> <int>
##  1 Jam                    1994     7
##  2 Smilers                1998     7
##  3 Smilers                2001     6
##  4 Tanel Padar @ The Sun  2007     6
##  5 Tanel Padar & The Sun  2006     6
##  6 Terminaator            2003     6
##  7 2 Quick Start          1994     5
##  8 Ines                   2005     5
##  9 Nancy                  1995     5
## 10 Nexus                  2005     5
## # … with 677 more rows
…
mutate() - lisab tabelile uue tulba

row_number() - väljastab rea järjekorranumbri

summarise() - teeb tabelist kokkuvõtte

n() - loendab kokku, mitu tunnust grupis on

arrange() käsk järjestab andmestiku mingi tunnuse järgi. Näiteks järjestame tabeli nii, et tipus on kõik esikohad, järgnevad teised kohad ja nii edasi.

edetabel %>% 
  arrange(rank)

## # A tibble: 1,000 x 9
##     year  rank votes artist  song    filename     source lyrics         language
##    <dbl> <dbl> <dbl> <chr>   <chr>   <chr>         <dbl> <chr>          <chr>   
##  1  1994     1    NA Ummamu… Kõnõtr… lyrics-umma…      1 ":,:Välän kül… et      
##  2  1995     1  1132 Termin… Juulik… lyrics-term…      1 "Kõik ei ole … et      
##  3  1996     1  1940 Best B4 Ma Arm… lyrics-best…      1 "Nagu varju e… et      
##  4  1997     1  1923 Black … 17      lyrics-blac…      1 "On õhtu häma… et      
##  5  1998     1  1216 Smilers Tantsi… lyrics-smil…      1 "Kuu on täis … et      
##  6  1999     1  1125 Caater  Osi Ne… <NA>             NA  <NA>          <NA>    
##  7  2000     1  2097 Ines    Once I… lyrics-ines…      1 "I don't wish… en      
##  8  2001     1  2149 2 Quic… Ühega … lyrics-2_qu…      1 "Võin niimood… et      
##  9  2002     1  1882 Termin… Romula  lyrics-term…      1 "Õhtu saabunu… et      
## 10  2003     1  2262 Nexus   Nii Ku… lyrics-nexu…      1 "Üksikuna lei… et      
## # … with 990 more rows

Me võime järjestada ka mitme tunnuse alusel. Järjestame nad kõigepealt edetabelikoha järgi, aga lisame, et uuemad lood võiksid olla ees. Selle jaoks saame lisada lihtsalt komaga eraldatult uue tunnuse. desc() funktsioon pöörab tunnuse järjestuse ümber, nii et suurim väärtus on eespool

edetabel %>% 
  arrange(rank, desc(year))

## # A tibble: 1,000 x 9
##     year  rank votes artist    song   filename     source lyrics        language
##    <dbl> <dbl> <dbl> <chr>     <chr>  <chr>         <dbl> <chr>         <chr>   
##  1  2018     1   877 Nublu     Mina … lyrics-nubl…      1 Sest sa ei t… et      
##  2  2017     1   845 Põhja-Ta… Alati… lyrics-pohj…      1 Pole ma eale… et      
##  3  2016     1   837 Shanon    Suvi … lyrics-shan…      1 Kuumus tõsta… et      
##  4  2015     1  1609 Karl-Eri… Segas… lyrics-karl…      1 Me vahel sõd… et      
##  5  2014     1   702 Curly St… Kauge… lyrics-curl…      1 Kauges külas… et      
##  6  2013     1   796 Smilers   Mojito lyrics-smil…      1 Kahte pikka … et      
##  7  2012     1  1385 Põhja-Ta… Meil … lyrics-pohj…      1 Refrään (2x)… et      
##  8  2011     1  1166 Ewert An… Good … lyrics-ewer…      1 Here is a st… en      
##  9  2010     1  1583 Koit Too… Mäles… lyrics-koit…      1 leidsin saht… et      
## 10  2009     1  1296 Koit Too… Kauge… lyrics-koit…      1 Olen tagasi … et      
## # … with 990 more rows
…
